{
    "name": "Scivana.State.Tests",
    "references": [
        "GUID:0ff63756b779ab74ba5196616461527d",
        "GUID:27619889b8ba8c24980f49ee34dbb44a",
        "GUID:0acc523941302664db1f4e527237feb3"
    ],
    "includePlatforms": [
        "Editor"
    ],
    "excludePlatforms": [],
    "allowUnsafeCode": false,
    "overrideReferences": true,
    "precompiledReferences": [
        "NSubstitute.dll",
        "nunit.framework.dll"
    ],
    "autoReferenced": false,
    "defineConstraints": [],
    "versionDefines": [],
    "noEngineReferences": false
}