{
    "name": "Scivana.UI",
    "rootNamespace": "",
    "references": [
        "GUID:6055be8ebefd69e48b49212b09b47b2f",
        "GUID:cf414061cae3a954baf92763590f3127"
    ],
    "includePlatforms": [],
    "excludePlatforms": [],
    "allowUnsafeCode": false,
    "overrideReferences": true,
    "precompiledReferences": [],
    "autoReferenced": false,
    "defineConstraints": [],
    "versionDefines": [],
    "noEngineReferences": false
}