{
    "name": "ScivanaIMD",
    "rootNamespace": "",
    "references": [
        "Unity.TextMeshPro",
        "Scivana.App",
        "Scivana.Visualisation",
        "Scivana.Network",
        "Scivana.Trajectory",
        "Scivana.Core",
        "Scivana.State",
        "Scivana.UI",
        "Unity.XR.Interaction.Toolkit",
        "Unity.InputSystem",
        "Unity.InputSystem.TestFramework"
    ],
    "includePlatforms": [],
    "excludePlatforms": [],
    "allowUnsafeCode": false,
    "overrideReferences": true,
    "precompiledReferences": [
        "Essd.dll",
        "Newtonsoft.Json.dll",
        "Grpc.Core.Api.dll"
    ],
    "autoReferenced": false,
    "defineConstraints": [],
    "versionDefines": [],
    "noEngineReferences": false
}