%YAML 1.1
%TAG !u! tag:unity3d.com,2011:
--- !u!114 &11400000
MonoBehaviour:
  m_ObjectHideFlags: 0
  m_CorrespondingSourceObject: {fileID: 0}
  m_PrefabInstance: {fileID: 0}
  m_PrefabAsset: {fileID: 0}
  m_GameObject: {fileID: 0}
  m_Enabled: 1
  m_EditorHideFlags: 0
  m_Script: {fileID: 11500000, guid: 7a9ff19300504ff6b692806f9351a410, type: 3}
  m_Name: Raycast Sphere
  m_EditorClassIdentifier: 
  material: {fileID: 2100000, guid: 393f247d900223443927eecea10d89e8, type: 2}
  id: raycast sphere
